^C:\DOCUMENTS AND SETTINGS\USOV_AE\Рабочий стол\Новая папка\WINDOWSFORMSAPPLICATION2\WINDOWSFORMSAPPLICATION2\PROPERTIES\RESOURCES.RESX
^C:\DOCUMENTS AND SETTINGS\USOV_AE\Рабочий стол\Новая папка\WINDOWSFORMSAPPLICATION2\WINDOWSFORMSAPPLICATION2\FORM1.RESX
^C:\DOCUMENTS AND SETTINGS\USOV_AE\Рабочий стол\Лексический анализатор\Лексический анализатор\WINDOWSFORMSAPPLICATION2\WINDOWSFORMSAPPLICATION2\FORM1.RESX
^C:\DOCUMENTS AND SETTINGS\USOV_AE\Рабочий стол\Лексический анализатор\Лексический анализатор\WINDOWSFORMSAPPLICATION2\WINDOWSFORMSAPPLICATION2\PROPERTIES\RESOURCES.RESX
